('/home/gru/Git/coding/python files/temperature/build/pyqt_temp/PKG-00.pkg',
 {'BINARY': 1,
  'DATA': 1,
  'EXECUTABLE': 1,
  'EXTENSION': 1,
  'PYMODULE': 1,
  'PYSOURCE': 1,
  'PYZ': 0},
 [('PYZ-00.pyz',
   '/home/gru/Git/coding/python files/temperature/build/pyqt_temp/PYZ-00.pyz',
   'PYZ'),
  ('_struct',
   '/usr/lib64/python3.7/lib-dynload/_struct.cpython-37m-x86_64-linux-gnu.so',
   'EXTENSION'),
  ('zlib',
   '/usr/lib64/python3.7/lib-dynload/zlib.cpython-37m-x86_64-linux-gnu.so',
   'EXTENSION'),
  ('struct',
   '/home/gru/Git/coding/python '
   'files/temperature/build/pyqt_temp/localpycos/struct.pyo',
   'PYMODULE'),
  ('pyimod01_os_path',
   '/home/gru/Git/coding/python '
   'files/temperature/build/pyqt_temp/localpycos/pyimod01_os_path.pyc',
   'PYMODULE'),
  ('pyimod02_archive',
   '/home/gru/Git/coding/python '
   'files/temperature/build/pyqt_temp/localpycos/pyimod02_archive.pyc',
   'PYMODULE'),
  ('pyimod03_importers',
   '/home/gru/Git/coding/python '
   'files/temperature/build/pyqt_temp/localpycos/pyimod03_importers.pyc',
   'PYMODULE'),
  ('pyiboot01_bootstrap',
   '/usr/local/lib/python3.7/site-packages/PyInstaller/loader/pyiboot01_bootstrap.py',
   'PYSOURCE'),
  ('pyi_rth_qt5',
   '/usr/local/lib/python3.7/site-packages/PyInstaller/loader/rthooks/pyi_rth_qt5.py',
   'PYSOURCE'),
  ('pyqt_temp',
   '/home/gru/Git/coding/python files/temperature/pyqt_temp.py',
   'PYSOURCE'),
  ('libpython3.7m.so.1.0', '/lib64/libpython3.7m.so.1.0', 'BINARY'),
  ('PyQt5/Qt/plugins/platformthemes/libqgtk3.so',
   '/usr/lib64/qt5/plugins/platformthemes/libqgtk3.so',
   'BINARY'),
  ('PyQt5/Qt/plugins/imageformats/libqjpeg.so',
   '/usr/lib64/qt5/plugins/imageformats/libqjpeg.so',
   'BINARY'),
  ('PyQt5/Qt/plugins/imageformats/libqgif.so',
   '/usr/lib64/qt5/plugins/imageformats/libqgif.so',
   'BINARY'),
  ('PyQt5/Qt/plugins/imageformats/libqico.so',
   '/usr/lib64/qt5/plugins/imageformats/libqico.so',
   'BINARY'),
  ('PyQt5/Qt/plugins/platforminputcontexts/libcomposeplatforminputcontextplugin.so',
   '/usr/lib64/qt5/plugins/platforminputcontexts/libcomposeplatforminputcontextplugin.so',
   'BINARY'),
  ('PyQt5/Qt/plugins/imageformats/libqsvg.so',
   '/usr/lib64/qt5/plugins/imageformats/libqsvg.so',
   'BINARY'),
  ('PyQt5/Qt/plugins/platforms/libqeglfs.so',
   '/usr/lib64/qt5/plugins/platforms/libqeglfs.so',
   'BINARY'),
  ('PyQt5/Qt/plugins/platforms/libqminimal.so',
   '/usr/lib64/qt5/plugins/platforms/libqminimal.so',
   'BINARY'),
  ('PyQt5/Qt/plugins/platforms/libqminimalegl.so',
   '/usr/lib64/qt5/plugins/platforms/libqminimalegl.so',
   'BINARY'),
  ('PyQt5/Qt/plugins/platforms/libqoffscreen.so',
   '/usr/lib64/qt5/plugins/platforms/libqoffscreen.so',
   'BINARY'),
  ('PyQt5/Qt/plugins/platforminputcontexts/libibusplatforminputcontextplugin.so',
   '/usr/lib64/qt5/plugins/platforminputcontexts/libibusplatforminputcontextplugin.so',
   'BINARY'),
  ('PyQt5/Qt/plugins/platforms/libqvnc.so',
   '/usr/lib64/qt5/plugins/platforms/libqvnc.so',
   'BINARY'),
  ('PyQt5/Qt/plugins/iconengines/libqsvgicon.so',
   '/usr/lib64/qt5/plugins/iconengines/libqsvgicon.so',
   'BINARY'),
  ('PyQt5/Qt/plugins/platforms/libqlinuxfb.so',
   '/usr/lib64/qt5/plugins/platforms/libqlinuxfb.so',
   'BINARY'),
  ('PyQt5/Qt/plugins/platformthemes/libqflatpak.so',
   '/usr/lib64/qt5/plugins/platformthemes/libqflatpak.so',
   'BINARY'),
  ('PyQt5/Qt/plugins/platforms/libqxcb.so',
   '/usr/lib64/qt5/plugins/platforms/libqxcb.so',
   'BINARY'),
  ('resource',
   '/usr/lib64/python3.7/lib-dynload/resource.cpython-37m-x86_64-linux-gnu.so',
   'EXTENSION'),
  ('_datetime',
   '/usr/lib64/python3.7/lib-dynload/_datetime.cpython-37m-x86_64-linux-gnu.so',
   'EXTENSION'),
  ('_posixsubprocess',
   '/usr/lib64/python3.7/lib-dynload/_posixsubprocess.cpython-37m-x86_64-linux-gnu.so',
   'EXTENSION'),
  ('_pickle',
   '/usr/lib64/python3.7/lib-dynload/_pickle.cpython-37m-x86_64-linux-gnu.so',
   'EXTENSION'),
  ('_ssl',
   '/usr/lib64/python3.7/lib-dynload/_ssl.cpython-37m-x86_64-linux-gnu.so',
   'EXTENSION'),
  ('unicodedata',
   '/usr/lib64/python3.7/lib-dynload/unicodedata.cpython-37m-x86_64-linux-gnu.so',
   'EXTENSION'),
  ('_codecs_tw',
   '/usr/lib64/python3.7/lib-dynload/_codecs_tw.cpython-37m-x86_64-linux-gnu.so',
   'EXTENSION'),
  ('_codecs_iso2022',
   '/usr/lib64/python3.7/lib-dynload/_codecs_iso2022.cpython-37m-x86_64-linux-gnu.so',
   'EXTENSION'),
  ('_codecs_cn',
   '/usr/lib64/python3.7/lib-dynload/_codecs_cn.cpython-37m-x86_64-linux-gnu.so',
   'EXTENSION'),
  ('_codecs_hk',
   '/usr/lib64/python3.7/lib-dynload/_codecs_hk.cpython-37m-x86_64-linux-gnu.so',
   'EXTENSION'),
  ('_codecs_kr',
   '/usr/lib64/python3.7/lib-dynload/_codecs_kr.cpython-37m-x86_64-linux-gnu.so',
   'EXTENSION'),
  ('_codecs_jp',
   '/usr/lib64/python3.7/lib-dynload/_codecs_jp.cpython-37m-x86_64-linux-gnu.so',
   'EXTENSION'),
  ('_multibytecodec',
   '/usr/lib64/python3.7/lib-dynload/_multibytecodec.cpython-37m-x86_64-linux-gnu.so',
   'EXTENSION'),
  ('_heapq',
   '/usr/lib64/python3.7/lib-dynload/_heapq.cpython-37m-x86_64-linux-gnu.so',
   'EXTENSION'),
  ('_opcode',
   '/usr/lib64/python3.7/lib-dynload/_opcode.cpython-37m-x86_64-linux-gnu.so',
   'EXTENSION'),
  ('readline',
   '/usr/lib64/python3.7/lib-dynload/readline.cpython-37m-x86_64-linux-gnu.so',
   'EXTENSION'),
  ('pyexpat',
   '/usr/lib64/python3.7/lib-dynload/pyexpat.cpython-37m-x86_64-linux-gnu.so',
   'EXTENSION'),
  ('termios',
   '/usr/lib64/python3.7/lib-dynload/termios.cpython-37m-x86_64-linux-gnu.so',
   'EXTENSION'),
  ('_sha1',
   '/usr/lib64/python3.7/lib-dynload/_sha1.cpython-37m-x86_64-linux-gnu.so',
   'EXTENSION'),
  ('_md5',
   '/usr/lib64/python3.7/lib-dynload/_md5.cpython-37m-x86_64-linux-gnu.so',
   'EXTENSION'),
  ('_sha256',
   '/usr/lib64/python3.7/lib-dynload/_sha256.cpython-37m-x86_64-linux-gnu.so',
   'EXTENSION'),
  ('_sha512',
   '/usr/lib64/python3.7/lib-dynload/_sha512.cpython-37m-x86_64-linux-gnu.so',
   'EXTENSION'),
  ('_blake2',
   '/usr/lib64/python3.7/lib-dynload/_blake2.cpython-37m-x86_64-linux-gnu.so',
   'EXTENSION'),
  ('_sha3',
   '/usr/lib64/python3.7/lib-dynload/_sha3.cpython-37m-x86_64-linux-gnu.so',
   'EXTENSION'),
  ('_hashlib',
   '/usr/lib64/python3.7/lib-dynload/_hashlib.cpython-37m-x86_64-linux-gnu.so',
   'EXTENSION'),
  ('_bisect',
   '/usr/lib64/python3.7/lib-dynload/_bisect.cpython-37m-x86_64-linux-gnu.so',
   'EXTENSION'),
  ('_random',
   '/usr/lib64/python3.7/lib-dynload/_random.cpython-37m-x86_64-linux-gnu.so',
   'EXTENSION'),
  ('_bz2',
   '/usr/lib64/python3.7/lib-dynload/_bz2.cpython-37m-x86_64-linux-gnu.so',
   'EXTENSION'),
  ('_lzma',
   '/usr/lib64/python3.7/lib-dynload/_lzma.cpython-37m-x86_64-linux-gnu.so',
   'EXTENSION'),
  ('grp',
   '/usr/lib64/python3.7/lib-dynload/grp.cpython-37m-x86_64-linux-gnu.so',
   'EXTENSION'),
  ('binascii',
   '/usr/lib64/python3.7/lib-dynload/binascii.cpython-37m-x86_64-linux-gnu.so',
   'EXTENSION'),
  ('_socket',
   '/usr/lib64/python3.7/lib-dynload/_socket.cpython-37m-x86_64-linux-gnu.so',
   'EXTENSION'),
  ('select',
   '/usr/lib64/python3.7/lib-dynload/select.cpython-37m-x86_64-linux-gnu.so',
   'EXTENSION'),
  ('math',
   '/usr/lib64/python3.7/lib-dynload/math.cpython-37m-x86_64-linux-gnu.so',
   'EXTENSION'),
  ('PyQt5.QtCore',
   '/usr/lib64/python3.7/site-packages/PyQt5/QtCore.so',
   'EXTENSION'),
  ('PyQt5.QtGui',
   '/usr/lib64/python3.7/site-packages/PyQt5/QtGui.so',
   'EXTENSION'),
  ('PyQt5.QtWidgets',
   '/usr/lib64/python3.7/site-packages/PyQt5/QtWidgets.so',
   'EXTENSION'),
  ('PyQt5.sip', '/usr/lib64/python3.7/site-packages/PyQt5/sip.so', 'EXTENSION'),
  ('libgtk-3.so.0', '/lib64/libgtk-3.so.0', 'BINARY'),
  ('libdbus-1.so.3', '/lib64/libdbus-1.so.3', 'BINARY'),
  ('libpango-1.0.so.0', '/lib64/libpango-1.0.so.0', 'BINARY'),
  ('libwayland-cursor.so.0', '/lib64/libwayland-cursor.so.0', 'BINARY'),
  ('libXcursor.so.1', '/lib64/libXcursor.so.1', 'BINARY'),
  ('libffi.so.6', '/lib64/libffi.so.6', 'BINARY'),
  ('libfreetype.so.6', '/lib64/libfreetype.so.6', 'BINARY'),
  ('libQt5Gui.so.5', '/lib64/libQt5Gui.so.5', 'BINARY'),
  ('libgdk_pixbuf-2.0.so.0', '/lib64/libgdk_pixbuf-2.0.so.0', 'BINARY'),
  ('libpcre.so.1', '/lib64/libpcre.so.1', 'BINARY'),
  ('liblz4.so.1', '/lib64/liblz4.so.1', 'BINARY'),
  ('libpangocairo-1.0.so.0', '/lib64/libpangocairo-1.0.so.0', 'BINARY'),
  ('libgio-2.0.so.0', '/lib64/libgio-2.0.so.0', 'BINARY'),
  ('libX11.so.6', '/lib64/libX11.so.6', 'BINARY'),
  ('libselinux.so.1', '/lib64/libselinux.so.1', 'BINARY'),
  ('libXau.so.6', '/lib64/libXau.so.6', 'BINARY'),
  ('libuuid.so.1', '/lib64/libuuid.so.1', 'BINARY'),
  ('libwayland-egl.so.1', '/lib64/libwayland-egl.so.1', 'BINARY'),
  ('libfontconfig.so.1', '/lib64/libfontconfig.so.1', 'BINARY'),
  ('libQt5Core.so.5', '/lib64/libQt5Core.so.5', 'BINARY'),
  ('libXinerama.so.1', '/lib64/libXinerama.so.1', 'BINARY'),
  ('libgmodule-2.0.so.0', '/lib64/libgmodule-2.0.so.0', 'BINARY'),
  ('libcap.so.2', '/lib64/libcap.so.2', 'BINARY'),
  ('libexpat.so.1', '/lib64/libexpat.so.1', 'BINARY'),
  ('libgpg-error.so.0', '/lib64/libgpg-error.so.0', 'BINARY'),
  ('libgdk-3.so.0', '/lib64/libgdk-3.so.0', 'BINARY'),
  ('libQt5DBus.so.5', '/lib64/libQt5DBus.so.5', 'BINARY'),
  ('libgcc_s.so.1', '/lib64/libgcc_s.so.1', 'BINARY'),
  ('libicui18n.so.62', '/lib64/libicui18n.so.62', 'BINARY'),
  ('libicudata.so.62', '/lib64/libicudata.so.62', 'BINARY'),
  ('libcairo-gobject.so.2', '/lib64/libcairo-gobject.so.2', 'BINARY'),
  ('libz.so.1', '/lib64/libz.so.1', 'BINARY'),
  ('libcairo.so.2', '/lib64/libcairo.so.2', 'BINARY'),
  ('libgthread-2.0.so.0', '/lib64/libgthread-2.0.so.0', 'BINARY'),
  ('libgobject-2.0.so.0', '/lib64/libgobject-2.0.so.0', 'BINARY'),
  ('libblkid.so.1', '/lib64/libblkid.so.1', 'BINARY'),
  ('liblzma.so.5', '/lib64/liblzma.so.5', 'BINARY'),
  ('libXi.so.6', '/lib64/libXi.so.6', 'BINARY'),
  ('libatk-bridge-2.0.so.0', '/lib64/libatk-bridge-2.0.so.0', 'BINARY'),
  ('libGLdispatch.so.0', '/lib64/libGLdispatch.so.0', 'BINARY'),
  ('libatspi.so.0', '/lib64/libatspi.so.0', 'BINARY'),
  ('libpng16.so.16', '/lib64/libpng16.so.16', 'BINARY'),
  ('libatk-1.0.so.0', '/lib64/libatk-1.0.so.0', 'BINARY'),
  ('libepoxy.so.0', '/lib64/libepoxy.so.0', 'BINARY'),
  ('libXcomposite.so.1', '/lib64/libXcomposite.so.1', 'BINARY'),
  ('libXext.so.6', '/lib64/libXext.so.6', 'BINARY'),
  ('libgcrypt.so.20', '/lib64/libgcrypt.so.20', 'BINARY'),
  ('libpixman-1.so.0', '/lib64/libpixman-1.so.0', 'BINARY'),
  ('libgraphite2.so.3', '/lib64/libgraphite2.so.3', 'BINARY'),
  ('libharfbuzz.so.0', '/lib64/libharfbuzz.so.0', 'BINARY'),
  ('libpangoft2-1.0.so.0', '/lib64/libpangoft2-1.0.so.0', 'BINARY'),
  ('libthai.so.0', '/lib64/libthai.so.0', 'BINARY'),
  ('libicuuc.so.62', '/lib64/libicuuc.so.62', 'BINARY'),
  ('libwayland-client.so.0', '/lib64/libwayland-client.so.0', 'BINARY'),
  ('libmount.so.1', '/lib64/libmount.so.1', 'BINARY'),
  ('libfribidi.so.0', '/lib64/libfribidi.so.0', 'BINARY'),
  ('libXrandr.so.2', '/lib64/libXrandr.so.2', 'BINARY'),
  ('libxcb-render.so.0', '/lib64/libxcb-render.so.0', 'BINARY'),
  ('libxcb-shm.so.0', '/lib64/libxcb-shm.so.0', 'BINARY'),
  ('libdatrie.so.1', '/lib64/libdatrie.so.1', 'BINARY'),
  ('libGLX.so.0', '/lib64/libGLX.so.0', 'BINARY'),
  ('libXfixes.so.3', '/lib64/libXfixes.so.3', 'BINARY'),
  ('libglib-2.0.so.0', '/lib64/libglib-2.0.so.0', 'BINARY'),
  ('libXrender.so.1', '/lib64/libXrender.so.1', 'BINARY'),
  ('libpcre2-8.so.0', '/lib64/libpcre2-8.so.0', 'BINARY'),
  ('libxkbcommon.so.0', '/lib64/libxkbcommon.so.0', 'BINARY'),
  ('libXdamage.so.1', '/lib64/libXdamage.so.1', 'BINARY'),
  ('libpcre2-16.so.0', '/lib64/libpcre2-16.so.0', 'BINARY'),
  ('libstdc++.so.6', '/lib64/libstdc++.so.6', 'BINARY'),
  ('libsystemd.so.0', '/lib64/libsystemd.so.0', 'BINARY'),
  ('libbz2.so.1', '/lib64/libbz2.so.1', 'BINARY'),
  ('libjpeg.so.62', '/lib64/libjpeg.so.62', 'BINARY'),
  ('libxcb-xkb.so.1', '/usr/lib64/libxcb-xkb.so.1', 'BINARY'),
  ('libxkbcommon-x11.so.0', '/lib64/libxkbcommon-x11.so.0', 'BINARY'),
  ('libQt5Widgets.so.5', '/lib64/libQt5Widgets.so.5', 'BINARY'),
  ('libQt5Svg.so.5', '/lib64/libQt5Svg.so.5', 'BINARY'),
  ('libwacom.so.2', '/lib64/libwacom.so.2', 'BINARY'),
  ('libevdev.so.2', '/lib64/libevdev.so.2', 'BINARY'),
  ('libEGL.so.1', '/lib64/libEGL.so.1', 'BINARY'),
  ('libinput.so.10', '/lib64/libinput.so.10', 'BINARY'),
  ('libudev.so.1', '/lib64/libudev.so.1', 'BINARY'),
  ('libgudev-1.0.so.0', '/lib64/libgudev-1.0.so.0', 'BINARY'),
  ('libQt5EglFSDeviceIntegration.so.5',
   '/lib64/libQt5EglFSDeviceIntegration.so.5',
   'BINARY'),
  ('libmtdev.so.1', '/lib64/libmtdev.so.1', 'BINARY'),
  ('libssl.so.1.1', '/lib64/libssl.so.1.1', 'BINARY'),
  ('libcrypto.so.1.1', '/lib64/libcrypto.so.1.1', 'BINARY'),
  ('libQt5Network.so.5', '/lib64/libQt5Network.so.5', 'BINARY'),
  ('libdrm.so.2', '/lib64/libdrm.so.2', 'BINARY'),
  ('libX11-xcb.so.1', '/lib64/libX11-xcb.so.1', 'BINARY'),
  ('libxcb-xfixes.so.0', '/lib64/libxcb-xfixes.so.0', 'BINARY'),
  ('libxcb-shape.so.0', '/lib64/libxcb-shape.so.0', 'BINARY'),
  ('libICE.so.6', '/lib64/libICE.so.6', 'BINARY'),
  ('libxcb-xinerama.so.0', '/lib64/libxcb-xinerama.so.0', 'BINARY'),
  ('libxcb-icccm.so.4', '/lib64/libxcb-icccm.so.4', 'BINARY'),
  ('libxcb-keysyms.so.1', '/lib64/libxcb-keysyms.so.1', 'BINARY'),
  ('libSM.so.6', '/lib64/libSM.so.6', 'BINARY'),
  ('libxcb-image.so.0', '/lib64/libxcb-image.so.0', 'BINARY'),
  ('libxcb-sync.so.1', '/lib64/libxcb-sync.so.1', 'BINARY'),
  ('libxcb-randr.so.0', '/lib64/libxcb-randr.so.0', 'BINARY'),
  ('libxcb-render-util.so.0', '/lib64/libxcb-render-util.so.0', 'BINARY'),
  ('libQt5XcbQpa.so.5', '/lib64/libQt5XcbQpa.so.5', 'BINARY'),
  ('libxcb-util.so.1', '/lib64/libxcb-util.so.1', 'BINARY'),
  ('libtinfo.so.6', '/lib64/libtinfo.so.6', 'BINARY'),
  ('libreadline.so.7', '/lib64/libreadline.so.7', 'BINARY'),
  ('base_library.zip',
   '/home/gru/Git/coding/python '
   'files/temperature/build/pyqt_temp/base_library.zip',
   'DATA')],
 False,
 False,
 False)
